# Blender MTL File: 'None'
# Material Count: 4

newmtl Pat_Arm.002
Ns 9.803922
Ka 0.900000 0.900000 0.900000
Kd 0.900000 0.900000 0.900000
Ks 0.000000 0.000000 0.000000
Ke 0.000000 0.000000 0.000000
Ni 1.500000
d 1.000000
illum 2
map_Kd Pat_Arm_DM_2.png
map_Bump Pat_Arm_NM_2.png

newmtl Pat_LowerLeg.002
Ns 9.803922
Ka 0.900000 0.900000 0.900000
Kd 0.900000 0.900000 0.900000
Ks 0.000000 0.000000 0.000000
Ke 0.000000 0.000000 0.000000
Ni 1.500000
d 1.000000
illum 2
map_Kd Pat_LowerLeg_DM_2.png
map_Bump Pat_LowerLeg_NM_2.png

newmtl Pat_Torso.002
Ns 200.0000
Ka 0.000000 0.000000 0.000000
Kd 0.000000 0.000000 0.000000
Ks 1.000000 1.000000 1.000000
Ke 0.000000 0.000000 0.000000
Ni 1.500000
d 1.000000
illum 2
map_Kd Pat_Torso_DM_2.png
#map_Bump Pat_Torso_NM_2.png

newmtl Pat_UpperLeg.002
Ns 9.803922
Ka 0.900000 0.900000 0.900000
Kd 0.900000 0.900000 0.900000
Ks 0.000000 0.000000 0.000000
Ke 0.000000 0.000000 0.000000
Ni 1.500000
d 1.000000
illum 2
map_Kd Pat_UpperLeg_DM_2.png
map_Bump Pat_UpperLeg_NM_2.png
